{"count":405271,"next":"http://192.168.8.116:8000/api/v1/storage_heater/?page=2","previous":null,"results":[{"timestamp":"2026-04-08T20:09:22.656483Z","relay_one":false,"relay_two":false,"relay_three":false,"relay_four":false,"relay_five":false,"relay_six":false,"temp_one":41.9375,"temp_two":36.5,"temp_three":40.8125,"temp_four":27.5},{"timestamp":"2026-04-08T20:08:21.472492Z","relay_one":false,"relay_two":false,"relay_three":false,"relay_four":false,"relay_five":false,"relay_six":false,"temp_one":42.0,"temp_two":36.5,"temp_three":40.8125,"temp_four":27.5},{"timestamp":"2026-04-08T20:07:25.026682Z","relay_one":false,"relay_two":false,"relay_three":false,"relay_four":false,"relay_five":false,"relay_six":false,"temp_one":42.0625,"temp_two":36.5,"temp_three":40.8125,"temp_four":27.5},{"timestamp":"2026-04-08T20:06:20.108243Z","relay_one":false,"relay_two":false,"relay_three":false,"relay_four":false,"relay_five":false,"relay_six":false,"temp_one":42.0625,"temp_two":36.5,"temp_three":40.875,"temp_four":27.5},{"timestamp":"2026-04-08T20:05:18.958070Z","relay_one":false,"relay_two":false,"relay_three":false,"relay_four":false,"relay_five":false,"relay_six":false,"temp_one":42.125,"temp_two":36.5,"temp_three":40.875,"temp_four":27.5},{"timestamp":"2026-04-08T20:04:17.804110Z","relay_one":false,"relay_two":false,"relay_three":false,"relay_four":false,"relay_five":false,"relay_six":false,"temp_one":42.125,"temp_two":36.5,"temp_three":40.875,"temp_four":27.5},{"timestamp":"2026-04-08T20:03:16.580514Z","relay_one":false,"relay_two":false,"relay_three":false,"relay_four":false,"relay_five":false,"relay_six":false,"temp_one":42.1875,"temp_two":36.75,"temp_three":40.875,"temp_four":27.5},{"timestamp":"2026-04-08T20:02:15.353987Z","relay_one":false,"relay_two":false,"relay_three":false,"relay_four":false,"relay_five":false,"relay_six":false,"temp_one":42.25,"temp_two":36.75,"temp_three":40.875,"temp_four":27.5},{"timestamp":"2026-04-08T20:01:15.119454Z","relay_one":false,"relay_two":false,"relay_three":false,"relay_four":false,"relay_five":false,"relay_six":false,"temp_one":42.3125,"temp_two":36.75,"temp_three":40.9375,"temp_four":27.5},{"timestamp":"2026-04-08T20:00:13.905839Z","relay_one":false,"relay_two":false,"relay_three":false,"relay_four":false,"relay_five":false,"relay_six":false,"temp_one":42.375,"temp_two":36.75,"temp_three":40.9375,"temp_four":27.5},{"timestamp":"2026-04-08T19:59:12.701241Z","relay_one":false,"relay_two":false,"relay_three":false,"relay_four":false,"relay_five":false,"relay_six":false,"temp_one":42.4375,"temp_two":36.75,"temp_three":41.0,"temp_four":27.5},{"timestamp":"2026-04-08T19:58:11.462424Z","relay_one":false,"relay_two":false,"relay_three":false,"relay_four":false,"relay_five":false,"relay_six":false,"temp_one":42.5,"temp_two":36.75,"temp_three":41.0,"temp_four":27.5},{"timestamp":"2026-04-08T19:57:10.230207Z","relay_one":false,"relay_two":false,"relay_three":false,"relay_four":false,"relay_five":false,"relay_six":false,"temp_one":42.5625,"temp_two":36.75,"temp_three":41.0625,"temp_four":27.5},{"timestamp":"2026-04-08T19:56:10.066219Z","relay_one":false,"relay_two":false,"relay_three":false,"relay_four":false,"relay_five":false,"relay_six":false,"temp_one":42.625,"temp_two":36.75,"temp_three":41.1875,"temp_four":27.5},{"timestamp":"2026-04-08T19:55:08.922150Z","relay_one":false,"relay_two":false,"relay_three":false,"relay_four":false,"relay_five":false,"relay_six":false,"temp_one":42.625,"temp_two":36.75,"temp_three":41.3125,"temp_four":27.5},{"timestamp":"2026-04-08T19:54:07.780374Z","relay_one":false,"relay_two":false,"relay_three":false,"relay_four":false,"relay_five":false,"relay_six":false,"temp_one":42.6875,"temp_two":36.75,"temp_three":41.375,"temp_four":27.5},{"timestamp":"2026-04-08T19:53:06.571047Z","relay_one":false,"relay_two":false,"relay_three":false,"relay_four":false,"relay_five":false,"relay_six":false,"temp_one":42.6875,"temp_two":36.75,"temp_three":41.375,"temp_four":27.5},{"timestamp":"2026-04-08T19:52:05.342638Z","relay_one":false,"relay_two":false,"relay_three":false,"relay_four":false,"relay_five":false,"relay_six":false,"temp_one":42.75,"temp_two":36.75,"temp_three":41.5,"temp_four":27.5},{"timestamp":"2026-04-08T19:51:05.138946Z","relay_one":false,"relay_two":false,"relay_three":false,"relay_four":false,"relay_five":false,"relay_six":false,"temp_one":42.75,"temp_two":36.75,"temp_three":41.5625,"temp_four":27.5},{"timestamp":"2026-04-08T19:50:03.949685Z","relay_one":false,"relay_two":false,"relay_three":false,"relay_four":false,"relay_five":false,"relay_six":false,"temp_one":42.8125,"temp_two":36.75,"temp_three":41.625,"temp_four":27.5},{"timestamp":"2026-04-08T19:49:02.744261Z","relay_one":false,"relay_two":false,"relay_three":false,"relay_four":false,"relay_five":false,"relay_six":false,"temp_one":42.8125,"temp_two":36.75,"temp_three":41.625,"temp_four":27.5},{"timestamp":"2026-04-08T19:48:01.528525Z","relay_one":false,"relay_two":false,"relay_three":false,"relay_four":false,"relay_five":false,"relay_six":false,"temp_one":42.875,"temp_two":36.75,"temp_three":41.6875,"temp_four":27.5},{"timestamp":"2026-04-08T19:47:00.302420Z","relay_one":false,"relay_two":false,"relay_three":false,"relay_four":false,"relay_five":false,"relay_six":false,"temp_one":42.9375,"temp_two":37.0,"temp_three":41.6875,"temp_four":27.5},{"timestamp":"2026-04-08T19:46:00.078008Z","relay_one":false,"relay_two":false,"relay_three":false,"relay_four":false,"relay_five":false,"relay_six":false,"temp_one":43.0,"temp_two":37.0,"temp_three":41.6875,"temp_four":27.5},{"timestamp":"2026-04-08T19:44:58.874568Z","relay_one":false,"relay_two":false,"relay_three":false,"relay_four":false,"relay_five":false,"relay_six":false,"temp_one":43.0625,"temp_two":37.0,"temp_three":41.75,"temp_four":27.5},{"timestamp":"2026-04-08T19:43:57.678003Z","relay_one":false,"relay_two":false,"relay_three":false,"relay_four":false,"relay_five":false,"relay_six":false,"temp_one":43.125,"temp_two":37.0,"temp_three":41.75,"temp_four":27.5},{"timestamp":"2026-04-08T19:42:56.464063Z","relay_one":false,"relay_two":false,"relay_three":false,"relay_four":false,"relay_five":false,"relay_six":false,"temp_one":43.125,"temp_two":37.0,"temp_three":41.75,"temp_four":27.5},{"timestamp":"2026-04-08T19:41:55.258362Z","relay_one":false,"relay_two":false,"relay_three":false,"relay_four":false,"relay_five":false,"relay_six":false,"temp_one":43.25,"temp_two":37.0,"temp_three":41.75,"temp_four":27.5},{"timestamp":"2026-04-08T19:40:55.037520Z","relay_one":false,"relay_two":false,"relay_three":false,"relay_four":false,"relay_five":false,"relay_six":false,"temp_one":43.25,"temp_two":37.0,"temp_three":41.8125,"temp_four":27.5},{"timestamp":"2026-04-08T19:39:53.845357Z","relay_one":false,"relay_two":false,"relay_three":false,"relay_four":false,"relay_five":false,"relay_six":false,"temp_one":43.3125,"temp_two":37.0,"temp_three":41.8125,"temp_four":27.5},{"timestamp":"2026-04-08T19:38:52.646311Z","relay_one":false,"relay_two":false,"relay_three":false,"relay_four":false,"relay_five":false,"relay_six":false,"temp_one":43.375,"temp_two":37.0,"temp_three":41.875,"temp_four":27.5},{"timestamp":"2026-04-08T19:37:51.437344Z","relay_one":false,"relay_two":false,"relay_three":false,"relay_four":false,"relay_five":false,"relay_six":false,"temp_one":43.4375,"temp_two":37.0,"temp_three":42.0,"temp_four":27.5},{"timestamp":"2026-04-08T19:36:50.253598Z","relay_one":false,"relay_two":false,"relay_three":false,"relay_four":false,"relay_five":false,"relay_six":false,"temp_one":43.4375,"temp_two":37.0,"temp_three":42.0625,"temp_four":27.5},{"timestamp":"2026-04-08T19:35:50.025350Z","relay_one":false,"relay_two":false,"relay_three":false,"relay_four":false,"relay_five":false,"relay_six":false,"temp_one":43.5,"temp_two":37.0,"temp_three":42.1875,"temp_four":27.5},{"timestamp":"2026-04-08T19:34:48.817314Z","relay_one":false,"relay_two":false,"relay_three":false,"relay_four":false,"relay_five":false,"relay_six":false,"temp_one":43.5,"temp_two":37.0,"temp_three":42.25,"temp_four":27.5},{"timestamp":"2026-04-08T19:33:47.594887Z","relay_one":false,"relay_two":false,"relay_three":false,"relay_four":false,"relay_five":false,"relay_six":false,"temp_one":43.5,"temp_two":37.0,"temp_three":42.3125,"temp_four":27.5},{"timestamp":"2026-04-08T19:32:46.378421Z","relay_one":false,"relay_two":false,"relay_three":false,"relay_four":false,"relay_five":false,"relay_six":false,"temp_one":43.5625,"temp_two":37.0,"temp_three":42.375,"temp_four":27.5},{"timestamp":"2026-04-08T19:31:45.213571Z","relay_one":false,"relay_two":false,"relay_three":false,"relay_four":false,"relay_five":false,"relay_six":false,"temp_one":43.5625,"temp_two":37.0,"temp_three":42.4375,"temp_four":27.5},{"timestamp":"2026-04-08T19:30:45.070510Z","relay_one":false,"relay_two":false,"relay_three":false,"relay_four":false,"relay_five":false,"relay_six":false,"temp_one":43.5625,"temp_two":37.0,"temp_three":42.5,"temp_four":27.5},{"timestamp":"2026-04-08T19:29:43.857554Z","relay_one":false,"relay_two":false,"relay_three":false,"relay_four":false,"relay_five":false,"relay_six":false,"temp_one":43.625,"temp_two":37.0,"temp_three":42.5,"temp_four":27.5},{"timestamp":"2026-04-08T19:28:42.637905Z","relay_one":false,"relay_two":false,"relay_three":false,"relay_four":false,"relay_five":false,"relay_six":false,"temp_one":43.6875,"temp_two":37.0,"temp_three":42.5,"temp_four":27.5},{"timestamp":"2026-04-08T19:27:41.429438Z","relay_one":false,"relay_two":false,"relay_three":false,"relay_four":false,"relay_five":false,"relay_six":false,"temp_one":43.6875,"temp_two":37.25,"temp_three":42.5625,"temp_four":27.5},{"timestamp":"2026-04-08T19:26:40.204414Z","relay_one":false,"relay_two":false,"relay_three":false,"relay_four":false,"relay_five":false,"relay_six":false,"temp_one":43.6875,"temp_two":37.25,"temp_three":42.5625,"temp_four":27.5},{"timestamp":"2026-04-08T19:25:40.014417Z","relay_one":false,"relay_two":false,"relay_three":false,"relay_four":false,"relay_five":false,"relay_six":false,"temp_one":43.6875,"temp_two":37.25,"temp_three":42.5625,"temp_four":27.5},{"timestamp":"2026-04-08T19:24:38.793785Z","relay_one":false,"relay_two":false,"relay_three":false,"relay_four":false,"relay_five":false,"relay_six":false,"temp_one":43.75,"temp_two":37.25,"temp_three":42.625,"temp_four":27.5},{"timestamp":"2026-04-08T19:23:37.597238Z","relay_one":false,"relay_two":false,"relay_three":false,"relay_four":false,"relay_five":false,"relay_six":false,"temp_one":43.75,"temp_two":37.25,"temp_three":42.625,"temp_four":27.5},{"timestamp":"2026-04-08T19:22:36.379232Z","relay_one":false,"relay_two":false,"relay_three":false,"relay_four":false,"relay_five":false,"relay_six":false,"temp_one":43.8125,"temp_two":37.25,"temp_three":42.625,"temp_four":27.5},{"timestamp":"2026-04-08T19:21:35.144969Z","relay_one":false,"relay_two":false,"relay_three":false,"relay_four":false,"relay_five":false,"relay_six":false,"temp_one":43.75,"temp_two":37.25,"temp_three":42.6875,"temp_four":27.5},{"timestamp":"2026-04-08T19:20:34.927294Z","relay_one":false,"relay_two":false,"relay_three":false,"relay_four":false,"relay_five":false,"relay_six":false,"temp_one":43.8125,"temp_two":37.25,"temp_three":42.6875,"temp_four":27.5},{"timestamp":"2026-04-08T19:19:33.705309Z","relay_one":false,"relay_two":false,"relay_three":false,"relay_four":false,"relay_five":false,"relay_six":false,"temp_one":43.8125,"temp_two":37.25,"temp_three":42.6875,"temp_four":27.5},{"timestamp":"2026-04-08T19:18:32.494449Z","relay_one":false,"relay_two":false,"relay_three":false,"relay_four":false,"relay_five":false,"relay_six":false,"temp_one":43.8125,"temp_two":37.25,"temp_three":42.6875,"temp_four":27.5},{"timestamp":"2026-04-08T19:17:31.264891Z","relay_one":false,"relay_two":false,"relay_three":false,"relay_four":false,"relay_five":false,"relay_six":false,"temp_one":43.875,"temp_two":37.25,"temp_three":42.8125,"temp_four":27.5},{"timestamp":"2026-04-08T19:16:31.044504Z","relay_one":false,"relay_two":false,"relay_three":false,"relay_four":false,"relay_five":false,"relay_six":false,"temp_one":43.875,"temp_two":37.25,"temp_three":42.8125,"temp_four":27.5},{"timestamp":"2026-04-08T19:15:29.821513Z","relay_one":false,"relay_two":false,"relay_three":false,"relay_four":false,"relay_five":false,"relay_six":false,"temp_one":43.875,"temp_two":37.25,"temp_three":42.8125,"temp_four":27.5},{"timestamp":"2026-04-08T19:14:28.629121Z","relay_one":false,"relay_two":false,"relay_three":false,"relay_four":false,"relay_five":false,"relay_six":false,"temp_one":43.9375,"temp_two":37.25,"temp_three":42.8125,"temp_four":27.5},{"timestamp":"2026-04-08T19:13:27.514233Z","relay_one":false,"relay_two":false,"relay_three":false,"relay_four":false,"relay_five":false,"relay_six":false,"temp_one":44.0,"temp_two":37.25,"temp_three":42.8125,"temp_four":27.5},{"timestamp":"2026-04-08T19:12:26.317127Z","relay_one":false,"relay_two":false,"relay_three":false,"relay_four":false,"relay_five":false,"relay_six":false,"temp_one":44.0,"temp_two":37.25,"temp_three":42.875,"temp_four":27.5},{"timestamp":"2026-04-08T19:11:26.093465Z","relay_one":false,"relay_two":false,"relay_three":false,"relay_four":false,"relay_five":false,"relay_six":false,"temp_one":44.0,"temp_two":37.25,"temp_three":42.875,"temp_four":27.5},{"timestamp":"2026-04-08T19:10:24.931807Z","relay_one":false,"relay_two":false,"relay_three":false,"relay_four":false,"relay_five":false,"relay_six":false,"temp_one":44.0,"temp_two":37.25,"temp_three":42.9375,"temp_four":27.5},{"timestamp":"2026-04-08T19:09:23.742111Z","relay_one":false,"relay_two":false,"relay_three":false,"relay_four":false,"relay_five":false,"relay_six":false,"temp_one":44.0625,"temp_two":37.25,"temp_three":42.9375,"temp_four":27.5},{"timestamp":"2026-04-08T19:08:22.517732Z","relay_one":false,"relay_two":false,"relay_three":false,"relay_four":false,"relay_five":false,"relay_six":false,"temp_one":44.0625,"temp_two":37.25,"temp_three":42.9375,"temp_four":27.5},{"timestamp":"2026-04-08T19:07:21.381502Z","relay_one":false,"relay_two":false,"relay_three":false,"relay_four":false,"relay_five":false,"relay_six":false,"temp_one":44.0625,"temp_two":37.25,"temp_three":43.0,"temp_four":27.5},{"timestamp":"2026-04-08T19:06:20.249869Z","relay_one":false,"relay_two":false,"relay_three":false,"relay_four":false,"relay_five":false,"relay_six":false,"temp_one":44.0625,"temp_two":37.25,"temp_three":43.0625,"temp_four":27.5},{"timestamp":"2026-04-08T19:05:19.145960Z","relay_one":false,"relay_two":false,"relay_three":false,"relay_four":false,"relay_five":false,"relay_six":false,"temp_one":44.125,"temp_two":37.25,"temp_three":43.0625,"temp_four":27.5},{"timestamp":"2026-04-08T19:04:19.057409Z","relay_one":false,"relay_two":false,"relay_three":false,"relay_four":false,"relay_five":false,"relay_six":false,"temp_one":44.1875,"temp_two":37.25,"temp_three":43.0625,"temp_four":27.5},{"timestamp":"2026-04-08T19:03:17.942351Z","relay_one":false,"relay_two":false,"relay_three":false,"relay_four":false,"relay_five":false,"relay_six":false,"temp_one":44.125,"temp_two":37.25,"temp_three":43.125,"temp_four":27.5},{"timestamp":"2026-04-08T19:02:16.773221Z","relay_one":false,"relay_two":false,"relay_three":false,"relay_four":false,"relay_five":false,"relay_six":false,"temp_one":44.1875,"temp_two":37.25,"temp_three":43.125,"temp_four":27.5},{"timestamp":"2026-04-08T19:01:15.609638Z","relay_one":false,"relay_two":false,"relay_three":false,"relay_four":false,"relay_five":false,"relay_six":false,"temp_one":44.1875,"temp_two":37.5,"temp_three":43.125,"temp_four":27.5},{"timestamp":"2026-04-08T19:00:14.477320Z","relay_one":false,"relay_two":false,"relay_three":false,"relay_four":false,"relay_five":false,"relay_six":false,"temp_one":44.25,"temp_two":37.5,"temp_three":43.125,"temp_four":27.5},{"timestamp":"2026-04-08T18:59:13.272594Z","relay_one":false,"relay_two":false,"relay_three":false,"relay_four":false,"relay_five":false,"relay_six":false,"temp_one":44.25,"temp_two":37.5,"temp_three":43.125,"temp_four":27.5},{"timestamp":"2026-04-08T18:58:13.072491Z","relay_one":false,"relay_two":false,"relay_three":false,"relay_four":false,"relay_five":false,"relay_six":false,"temp_one":44.3125,"temp_two":37.5,"temp_three":43.1875,"temp_four":27.5},{"timestamp":"2026-04-08T18:57:11.890342Z","relay_one":false,"relay_two":false,"relay_three":false,"relay_four":false,"relay_five":false,"relay_six":false,"temp_one":44.3125,"temp_two":37.5,"temp_three":43.1875,"temp_four":27.5},{"timestamp":"2026-04-08T18:56:10.722047Z","relay_one":false,"relay_two":false,"relay_three":false,"relay_four":false,"relay_five":false,"relay_six":false,"temp_one":44.3125,"temp_two":37.5,"temp_three":43.25,"temp_four":27.5},{"timestamp":"2026-04-08T18:55:09.525819Z","relay_one":false,"relay_two":false,"relay_three":false,"relay_four":false,"relay_five":false,"relay_six":false,"temp_one":44.375,"temp_two":37.5,"temp_three":43.25,"temp_four":27.5},{"timestamp":"2026-04-08T18:54:08.333059Z","relay_one":false,"relay_two":false,"relay_three":false,"relay_four":false,"relay_five":false,"relay_six":false,"temp_one":44.375,"temp_two":37.5,"temp_three":43.25,"temp_four":27.5},{"timestamp":"2026-04-08T18:53:07.159040Z","relay_one":false,"relay_two":false,"relay_three":false,"relay_four":false,"relay_five":false,"relay_six":false,"temp_one":44.4375,"temp_two":37.5,"temp_three":43.3125,"temp_four":27.5},{"timestamp":"2026-04-08T18:52:06.934192Z","relay_one":false,"relay_two":false,"relay_three":false,"relay_four":false,"relay_five":false,"relay_six":false,"temp_one":44.4375,"temp_two":37.5,"temp_three":43.375,"temp_four":27.5},{"timestamp":"2026-04-08T18:51:05.695121Z","relay_one":false,"relay_two":false,"relay_three":false,"relay_four":false,"relay_five":false,"relay_six":false,"temp_one":44.4375,"temp_two":37.5,"temp_three":43.375,"temp_four":27.5},{"timestamp":"2026-04-08T18:50:04.514860Z","relay_one":false,"relay_two":false,"relay_three":false,"relay_four":false,"relay_five":false,"relay_six":false,"temp_one":44.5,"temp_two":37.5,"temp_three":43.5,"temp_four":27.25},{"timestamp":"2026-04-08T18:49:03.306175Z","relay_one":false,"relay_two":false,"relay_three":false,"relay_four":false,"relay_five":false,"relay_six":false,"temp_one":44.5,"temp_two":37.5,"temp_three":43.5,"temp_four":27.25},{"timestamp":"2026-04-08T18:48:03.085857Z","relay_one":false,"relay_two":false,"relay_three":false,"relay_four":false,"relay_five":false,"relay_six":false,"temp_one":44.5,"temp_two":37.5,"temp_three":43.5625,"temp_four":27.25},{"timestamp":"2026-04-08T18:47:01.830647Z","relay_one":false,"relay_two":false,"relay_three":false,"relay_four":false,"relay_five":false,"relay_six":false,"temp_one":44.5,"temp_two":37.5,"temp_three":43.5625,"temp_four":27.25},{"timestamp":"2026-04-08T18:46:00.607829Z","relay_one":false,"relay_two":false,"relay_three":false,"relay_four":false,"relay_five":false,"relay_six":false,"temp_one":44.5,"temp_two":37.5,"temp_three":43.5625,"temp_four":27.25},{"timestamp":"2026-04-08T18:44:59.376573Z","relay_one":false,"relay_two":false,"relay_three":false,"relay_four":false,"relay_five":false,"relay_six":false,"temp_one":44.5,"temp_two":37.5,"temp_three":43.625,"temp_four":27.25},{"timestamp":"2026-04-08T18:43:58.171327Z","relay_one":false,"relay_two":false,"relay_three":false,"relay_four":false,"relay_five":false,"relay_six":false,"temp_one":44.5,"temp_two":37.5,"temp_three":43.625,"temp_four":27.5},{"timestamp":"2026-04-08T18:42:57.942266Z","relay_one":false,"relay_two":false,"relay_three":false,"relay_four":false,"relay_five":false,"relay_six":false,"temp_one":44.5625,"temp_two":37.5,"temp_three":43.625,"temp_four":27.5},{"timestamp":"2026-04-08T18:41:56.742315Z","relay_one":false,"relay_two":false,"relay_three":false,"relay_four":false,"relay_five":false,"relay_six":false,"temp_one":44.5625,"temp_two":37.5,"temp_three":43.625,"temp_four":27.5},{"timestamp":"2026-04-08T18:40:55.538558Z","relay_one":false,"relay_two":false,"relay_three":false,"relay_four":false,"relay_five":false,"relay_six":false,"temp_one":44.5625,"temp_two":37.5,"temp_three":43.6875,"temp_four":27.5},{"timestamp":"2026-04-08T18:39:54.321292Z","relay_one":false,"relay_two":false,"relay_three":false,"relay_four":false,"relay_five":false,"relay_six":false,"temp_one":44.5625,"temp_two":37.5,"temp_three":43.6875,"temp_four":27.5},{"timestamp":"2026-04-08T18:38:54.116600Z","relay_one":false,"relay_two":false,"relay_three":false,"relay_four":false,"relay_five":false,"relay_six":false,"temp_one":44.5625,"temp_two":37.5,"temp_three":43.6875,"temp_four":27.5},{"timestamp":"2026-04-08T18:37:52.894384Z","relay_one":false,"relay_two":false,"relay_three":false,"relay_four":false,"relay_five":false,"relay_six":false,"temp_one":44.5625,"temp_two":37.5,"temp_three":43.75,"temp_four":27.5},{"timestamp":"2026-04-08T18:36:51.691248Z","relay_one":false,"relay_two":false,"relay_three":false,"relay_four":false,"relay_five":false,"relay_six":false,"temp_one":44.5625,"temp_two":37.5,"temp_three":43.75,"temp_four":27.5},{"timestamp":"2026-04-08T18:35:50.513286Z","relay_one":false,"relay_two":false,"relay_three":false,"relay_four":false,"relay_five":false,"relay_six":false,"temp_one":44.625,"temp_two":37.5,"temp_three":43.75,"temp_four":27.5},{"timestamp":"2026-04-08T18:34:49.273462Z","relay_one":false,"relay_two":false,"relay_three":false,"relay_four":false,"relay_five":false,"relay_six":false,"temp_one":44.5625,"temp_two":37.5,"temp_three":43.75,"temp_four":27.5},{"timestamp":"2026-04-08T18:33:49.062225Z","relay_one":false,"relay_two":false,"relay_three":false,"relay_four":false,"relay_five":false,"relay_six":false,"temp_one":44.625,"temp_two":37.5,"temp_three":43.6875,"temp_four":27.5},{"timestamp":"2026-04-08T18:32:47.841009Z","relay_one":false,"relay_two":false,"relay_three":false,"relay_four":false,"relay_five":false,"relay_six":false,"temp_one":44.625,"temp_two":37.5,"temp_three":43.75,"temp_four":27.5},{"timestamp":"2026-04-08T18:31:46.621537Z","relay_one":false,"relay_two":false,"relay_three":false,"relay_four":false,"relay_five":false,"relay_six":false,"temp_one":44.625,"temp_two":37.5,"temp_three":43.75,"temp_four":27.5},{"timestamp":"2026-04-08T18:30:45.388463Z","relay_one":false,"relay_two":false,"relay_three":false,"relay_four":false,"relay_five":false,"relay_six":false,"temp_one":44.625,"temp_two":37.5,"temp_three":43.75,"temp_four":27.5},{"timestamp":"2026-04-08T18:29:44.236537Z","relay_one":false,"relay_two":false,"relay_three":false,"relay_four":false,"relay_five":false,"relay_six":false,"temp_one":44.625,"temp_two":37.75,"temp_three":43.75,"temp_four":27.5},{"timestamp":"2026-04-08T18:28:44.064061Z","relay_one":false,"relay_two":false,"relay_three":false,"relay_four":false,"relay_five":false,"relay_six":false,"temp_one":44.625,"temp_two":37.5,"temp_three":43.75,"temp_four":27.5},{"timestamp":"2026-04-08T18:27:42.830299Z","relay_one":false,"relay_two":false,"relay_three":false,"relay_four":false,"relay_five":false,"relay_six":false,"temp_one":44.625,"temp_two":37.75,"temp_three":43.8125,"temp_four":27.5},{"timestamp":"2026-04-08T18:26:41.595472Z","relay_one":false,"relay_two":false,"relay_three":false,"relay_four":false,"relay_five":false,"relay_six":false,"temp_one":44.625,"temp_two":37.75,"temp_three":43.8125,"temp_four":27.5},{"timestamp":"2026-04-08T18:25:40.372133Z","relay_one":false,"relay_two":false,"relay_three":false,"relay_four":false,"relay_five":false,"relay_six":false,"temp_one":44.625,"temp_two":37.75,"temp_three":43.75,"temp_four":27.5},{"timestamp":"2026-04-08T18:24:39.141811Z","relay_one":false,"relay_two":false,"relay_three":false,"relay_four":false,"relay_five":false,"relay_six":false,"temp_one":44.6875,"temp_two":37.75,"temp_three":43.8125,"temp_four":27.5},{"timestamp":"2026-04-08T18:23:37.901465Z","relay_one":false,"relay_two":false,"relay_three":false,"relay_four":false,"relay_five":false,"relay_six":false,"temp_one":44.6875,"temp_two":37.75,"temp_three":43.8125,"temp_four":27.5},{"timestamp":"2026-04-08T18:22:36.709089Z","relay_one":false,"relay_two":false,"relay_three":false,"relay_four":false,"relay_five":false,"relay_six":false,"temp_one":44.6875,"temp_two":37.75,"temp_three":43.8125,"temp_four":27.5},{"timestamp":"2026-04-08T18:21:35.461230Z","relay_one":false,"relay_two":false,"relay_three":false,"relay_four":false,"relay_five":false,"relay_six":false,"temp_one":44.6875,"temp_two":37.75,"temp_three":43.8125,"temp_four":27.5},{"timestamp":"2026-04-08T18:20:34.256299Z","relay_one":false,"relay_two":false,"relay_three":false,"relay_four":false,"relay_five":false,"relay_six":false,"temp_one":44.6875,"temp_two":37.75,"temp_three":43.8125,"temp_four":27.5},{"timestamp":"2026-04-08T18:19:34.048730Z","relay_one":false,"relay_two":false,"relay_three":false,"relay_four":false,"relay_five":false,"relay_six":false,"temp_one":44.6875,"temp_two":37.75,"temp_three":43.8125,"temp_four":27.5},{"timestamp":"2026-04-08T18:18:32.850143Z","relay_one":false,"relay_two":false,"relay_three":false,"relay_four":false,"relay_five":false,"relay_six":false,"temp_one":44.6875,"temp_two":37.75,"temp_three":43.8125,"temp_four":27.5},{"timestamp":"2026-04-08T18:17:31.604471Z","relay_one":false,"relay_two":false,"relay_three":false,"relay_four":false,"relay_five":false,"relay_six":false,"temp_one":44.6875,"temp_two":37.75,"temp_three":43.8125,"temp_four":27.5},{"timestamp":"2026-04-08T18:16:30.358250Z","relay_one":false,"relay_two":false,"relay_three":false,"relay_four":false,"relay_five":false,"relay_six":false,"temp_one":44.6875,"temp_two":37.75,"temp_three":43.8125,"temp_four":27.5},{"timestamp":"2026-04-08T18:15:30.142103Z","relay_one":false,"relay_two":false,"relay_three":false,"relay_four":false,"relay_five":false,"relay_six":false,"temp_one":44.6875,"temp_two":37.75,"temp_three":43.875,"temp_four":27.5},{"timestamp":"2026-04-08T18:14:28.901434Z","relay_one":false,"relay_two":false,"relay_three":false,"relay_four":false,"relay_five":false,"relay_six":false,"temp_one":44.6875,"temp_two":37.75,"temp_three":43.875,"temp_four":27.5},{"timestamp":"2026-04-08T18:13:27.685248Z","relay_one":false,"relay_two":false,"relay_three":false,"relay_four":false,"relay_five":false,"relay_six":false,"temp_one":44.75,"temp_two":37.75,"temp_three":43.875,"temp_four":27.5},{"timestamp":"2026-04-08T18:12:26.476216Z","relay_one":false,"relay_two":false,"relay_three":false,"relay_four":false,"relay_five":false,"relay_six":false,"temp_one":44.75,"temp_two":37.75,"temp_three":43.875,"temp_four":27.5},{"timestamp":"2026-04-08T18:11:25.250415Z","relay_one":false,"relay_two":false,"relay_three":false,"relay_four":false,"relay_five":false,"relay_six":false,"temp_one":44.75,"temp_two":37.75,"temp_three":43.875,"temp_four":27.5},{"timestamp":"2026-04-08T18:10:25.069816Z","relay_one":false,"relay_two":false,"relay_three":false,"relay_four":false,"relay_five":false,"relay_six":false,"temp_one":44.6875,"temp_two":37.75,"temp_three":43.875,"temp_four":27.5},{"timestamp":"2026-04-08T18:09:23.844006Z","relay_one":false,"relay_two":false,"relay_three":false,"relay_four":false,"relay_five":false,"relay_six":false,"temp_one":44.75,"temp_two":37.75,"temp_three":43.875,"temp_four":27.5},{"timestamp":"2026-04-08T18:08:22.597529Z","relay_one":false,"relay_two":false,"relay_three":false,"relay_four":false,"relay_five":false,"relay_six":false,"temp_one":44.75,"temp_two":37.75,"temp_three":43.875,"temp_four":27.5}]}